{
    "data":[
        {
            "name": "Kabba",
            "image": "https://i.ibb.co/RD7gYW5/haidan-IAwnp88-Fz8-Y-unsplash.jpg"
        },
        {
            "name": "Kabba",
            "image": "https://i.ibb.co/RD7gYW5/haidan-IAwnp88-Fz8-Y-unsplash.jpg"
        },
        {
            "name": "Kabba",
            "image": "https://i.ibb.co/RD7gYW5/haidan-IAwnp88-Fz8-Y-unsplash.jpg"
        },
        {
            "name": "Kabba",
            "image": "https://i.ibb.co/RD7gYW5/haidan-IAwnp88-Fz8-Y-unsplash.jpg"
        },
        {
            "name": "Kabba",
            "image": "https://i.ibb.co/RD7gYW5/haidan-IAwnp88-Fz8-Y-unsplash.jpg"
        },
        {
            "name": "Kabba",
            "image": "https://i.ibb.co/RD7gYW5/haidan-IAwnp88-Fz8-Y-unsplash.jpg"
        },
        {
            "name": "Kabba",
            "image": "https://i.ibb.co/RD7gYW5/haidan-IAwnp88-Fz8-Y-unsplash.jpg"
        },
        {
            "name": "Kabba",
            "image": "https://i.ibb.co/RD7gYW5/haidan-IAwnp88-Fz8-Y-unsplash.jpg"
        },
        {
            "name": "Kabba",
            "image": "https://i.ibb.co/RD7gYW5/haidan-IAwnp88-Fz8-Y-unsplash.jpg"
        },
        {
            "name": "Kabba",
            "image": "https://i.ibb.co/RD7gYW5/haidan-IAwnp88-Fz8-Y-unsplash.jpg"
        },
        {
            "name": "Kabba",
            "image": "https://i.ibb.co/RD7gYW5/haidan-IAwnp88-Fz8-Y-unsplash.jpg"
        },
        {
            "name": "Kabba",
            "image": "https://i.ibb.co/RD7gYW5/haidan-IAwnp88-Fz8-Y-unsplash.jpg"
        },
        {
            "name": "Kabba",
            "image": "https://i.ibb.co/RD7gYW5/haidan-IAwnp88-Fz8-Y-unsplash.jpg"
        },
        {
            "name": "Kabba",
            "image": "https://i.ibb.co/RD7gYW5/haidan-IAwnp88-Fz8-Y-unsplash.jpg"
        },
        {
            "name": "Kabba",
            "image": "https://i.ibb.co/RD7gYW5/haidan-IAwnp88-Fz8-Y-unsplash.jpg"
        },
        {
            "name": "Kabba",
            "image": "https://i.ibb.co/RD7gYW5/haidan-IAwnp88-Fz8-Y-unsplash.jpg"
        },
        {
            "name": "Kabba",
            "image": "https://i.ibb.co/RD7gYW5/haidan-IAwnp88-Fz8-Y-unsplash.jpg"
        },
        {
            "name": "Kabba",
            "image": "https://i.ibb.co/RD7gYW5/haidan-IAwnp88-Fz8-Y-unsplash.jpg"
        },
        {
            "name": "Kabba",
            "image": "https://i.ibb.co/RD7gYW5/haidan-IAwnp88-Fz8-Y-unsplash.jpg"
        },
        {
            "name": "Kabba",
            "image": "https://i.ibb.co/RD7gYW5/haidan-IAwnp88-Fz8-Y-unsplash.jpg"
        },
        {
            "name": "Kabba",
            "image": "https://i.ibb.co/RD7gYW5/haidan-IAwnp88-Fz8-Y-unsplash.jpg"
        },
        {
            "name": "Kabba",
            "image": "https://i.ibb.co/RD7gYW5/haidan-IAwnp88-Fz8-Y-unsplash.jpg"
        },
        {
            "name": "Kabba",
            "image": "https://i.ibb.co/RD7gYW5/haidan-IAwnp88-Fz8-Y-unsplash.jpg"
        },
        {
            "name": "Kabba",
            "image": "https://i.ibb.co/RD7gYW5/haidan-IAwnp88-Fz8-Y-unsplash.jpg"
        },
        {
            "name": "Kabba",
            "image": "https://i.ibb.co/RD7gYW5/haidan-IAwnp88-Fz8-Y-unsplash.jpg"
        },
        {
            "name": "Kabba",
            "image": "https://i.ibb.co/RD7gYW5/haidan-IAwnp88-Fz8-Y-unsplash.jpg"
        },
        {
            "name": "Kabba",
            "image": "https://i.ibb.co/RD7gYW5/haidan-IAwnp88-Fz8-Y-unsplash.jpg"
        },
        {
            "name": "Kabba",
            "image": "https://i.ibb.co/RD7gYW5/haidan-IAwnp88-Fz8-Y-unsplash.jpg"
        },
        {
            "name": "Kabba",
            "image": "https://i.ibb.co/RD7gYW5/haidan-IAwnp88-Fz8-Y-unsplash.jpg"
        },
        {
            "name": "Kabba",
            "image": "https://i.ibb.co/RD7gYW5/haidan-IAwnp88-Fz8-Y-unsplash.jpg"
        },
        {
            "name": "Kabba",
            "image": "https://i.ibb.co/RD7gYW5/haidan-IAwnp88-Fz8-Y-unsplash.jpg"
        },
        {
            "name": "Kabba",
            "image": "https://i.ibb.co/RD7gYW5/haidan-IAwnp88-Fz8-Y-unsplash.jpg"
        },
        {
            "name": "Kabba",
            "image": "https://i.ibb.co/RD7gYW5/haidan-IAwnp88-Fz8-Y-unsplash.jpg"
        },
        {
            "name": "Kabba",
            "image": "https://i.ibb.co/RD7gYW5/haidan-IAwnp88-Fz8-Y-unsplash.jpg"
        },
        {
            "name": "Kabba",
            "image": "https://i.ibb.co/RD7gYW5/haidan-IAwnp88-Fz8-Y-unsplash.jpg"
        },
        {
            "name": "Kabba",
            "image": "https://i.ibb.co/RD7gYW5/haidan-IAwnp88-Fz8-Y-unsplash.jpg"
        },
        {
            "name": "Kabba",
            "image": "https://i.ibb.co/RD7gYW5/haidan-IAwnp88-Fz8-Y-unsplash.jpg"
        },
        {
            "name": "Kabba",
            "image": "https://i.ibb.co/RD7gYW5/haidan-IAwnp88-Fz8-Y-unsplash.jpg"
        },
        {
            "name": "Kabba",
            "image": "https://i.ibb.co/RD7gYW5/haidan-IAwnp88-Fz8-Y-unsplash.jpg"
        },
        {
            "name": "Kabba",
            "image": "https://i.ibb.co/RD7gYW5/haidan-IAwnp88-Fz8-Y-unsplash.jpg"
        }
      ],
    "meta": {
        "current_page": 1,
        "from": 1,
        "last_page": 5,
        "path": "https://Ashekboy.github.io/Data/wallerpaper.json",
        "per_page": 10,
        "to": 10,
        "total":43
     },
    "links": {
        "first": "https://Ashekboy.github.io/Data/wallerpaper.json?page=1", 
        "last": "https://Ashekboy.github.io/Data/wallerpaper.json?page=5", 
        "prev": null, 
        "next": "https://Ashekboy.github.io/Data/wallerpaper.json?page=2"
     }
}
           
